a52dec 0.7.4-11
aalib 1.4rc5-14
accountsservice 0.6.55-3
acl 2.2.53-3
acpi 1.7-3
adobe-source-code-pro-fonts 2.038ro+1.058it+1.018var-1
adobe-source-han-sans-kr-fonts 2.002-1
adwaita-icon-theme 3.38.0-1
aic94xx-firmware 30-9
alacritty 0.7.1-1
alsa-card-profiles 1:0.3.21-1
alsa-firmware 1.2.4-2
alsa-lib 1.2.4-3
alsa-oss 1.1.8-3
alsa-plugins 1:1.2.2-2
alsa-tools 1.2.2-1
alsa-topology-conf 1.2.4-2
alsa-ucm-conf 1.2.4-2
alsa-utils 1.2.4-2
amd-ucode 20201218.646f159-1
android-tools 30.0.5-1
anydesk-bin 6.1.0-1
aom 2.0.1-1
apr 1.7.0-3
apr-util 1.6.1-8
arandr 0.1.10-5
archey3 0.5-11
archlinux-keyring 20210110-1
archlinux-xdg-menu 0.7.6.3-2
argon2 20190702-3
aria2 1.35.0-2
aribb24 1.0.3-3
asciinema 2.0.2-5
at-spi2-atk 2.38.0-1
at-spi2-core 2.38.0-1
atk 2.36.0-1
atkmm 2.28.1-1
attica 5.78.0-1
attr 2.4.48-3
audiofile 0.3.6-6
audit 3.0-1
autoconf 2.71-1
automake 1.16.3-1
avahi 0.8+15+ge8a3dd0-3
awesome 4.3-2
awesome-terminal-fonts 1.1.0-3
babl 0.1.82-1
base 2-2
bash 5.1.004-1
bc 1.07.1-4
binutils 2.36-3
bison 3.7.3-1
blas 3.9.0-3
blueman 2.1.4-1
bluez 5.55-2
bluez-libs 5.55-2
bluez-tools 0.2.0-5
bluez-utils 5.55-2
boost-libs 1.75.0-2
box2d 2.4.1-1
brave-bin 1:1.19.92-1
breezy 3.1.0.8-1
bridge-utils 1.7-1
broot 1.2.3-1
brotli 1.0.9-4
bspwm 0.9.10-1
btrfs-progs 5.10-1
bubblewrap 0.4.1-1
bzip2 1.0.8-4
c-ares 1.17.1-1
ca-certificates 20181109-4
ca-certificates-mozilla 3.61-1
ca-certificates-utils 20181109-4
cairo 1.17.4-3
cairomm 1.12.2-4
calf 0.90.3-4
calibre 5.10.1-1
cantarell-fonts 1:0.301-1
cbatticon 1.6.10-2
cblas 3.9.0-3
cdparanoia 10.2-8
cheese 3.38.0-1
chmlib 0.40-6
chromaprint 1.5.0-3
chromium 88.0.4324.150-1
cifs-utils 6.11-3
clang 11.0.1-1
clucene 2.3.3.4-11
clutter 1.26.4-1
clutter-gst 3.0.27-3
clutter-gtk 1.8.4-2
cmake 3.19.4-1
cmatrix 2.0-2
code 1.52.1-1
cogl 1.22.8-1
colord 1.4.5-1
compiler-rt 11.0.1-1
confuse 3.3-3
containerd 1.4.3-1
coreutils 8.32-1
cowsay 3.04-2
crypto++ 8.4.0-1
cryptsetup 2.3.4-1
curl 7.75.0-1
dash 0.5.11.3-1
dav1d 0.8.1-1
db 5.3.28-5
dbus 1.12.20-1
dbus-docs 1.12.20-1
dbus-glib 0.110-2
dconf 0.38.0-1
desktop-file-utils 0.26-1
device-mapper 2.02.187-3
dialog 1:1.3_20210117-1
diffutils 3.7-3
ditaa 0.11.0-3
djvulibre 3.5.28-2
dkms 2.8.4-1
dmenu 5.0-1
dmidecode 3.3-1
dmraid 1.0.0.rc16.3-12
dnssec-anchors 20190629-3
docker 1:20.10.3-1
dosbox 0.74.3-2
dosfstools 4.1-3
double-conversion 3.1.5-2
dunst 1.5.0-1
e2fsprogs 1.46.0-1
efibootmgr 17-2
efivar 37-4
egl-wayland 1.1.6-1
eglexternalplatform 1.1-2
electron9 9.4.3-1
elfutils 0.182-1
emacs 27.1-3
enca 1.19-4
enchant 2.2.13-2
engrampa 1.24.1-1
exiv2 0.27.3-1
exo 4.16.0-1
expat 2.2.10-2
faac 1.30-2
faad2 2.10.0-1
fakeroot 1.25.3-1
fd 8.2.1-1
feh 3.6.3-1
ffmpeg 2:4.3.1-4
ffmpegthumbnailer 2.2.2-2
fftw 3.3.9-1
file 5.39-1
filesystem 2021.01.19-1
findutils 4.8.0-1
fingerprint-gui 1.09-7
firefox 85.0.1-1
firefox-i18n-ja 85.0.1-1
firefox-i18n-ko 85.0.1-1
firefox-i18n-ne-np 85.0.1-1
firefox-i18n-ur 85.0.1-1
firefox-i18n-zh-cn 85.0.1-1
fish 3.1.2-2
flac 1.3.3-2
flameshot 0.8.5-1
flashplayer-standalone 32.0.0.465-1
flashplugin 32.0.0.465-1
flex 2.6.4-3
fltk 1.3.5-4
fluidsynth 2.1.7-1
fontconfig 2:2.13.91+48+gfcb0420-2
fontconfig-docs 2:2.13.91+48+gfcb0420-2
fontforge 20201107-1
fprintd 1.90.9-1
freeimage 3.18.0-7
freetype2 2.10.4-1
frei0r-plugins 1.7.0-1
freshplayerplugin 0.3.11-1
fribidi 1.0.10-1
fuse-common 3.10.2-1
fuse2 2.9.9-4
fuse3 3.10.2-1
fzf 0.25.1-1
galculator 2.1.4-5
garcon 4.16.1-1
gavl 1.4.0-4
gawk 5.1.0-1
gc 8.0.4-4
gcc 10.2.0-6
gcc-libs 10.2.0-6
gcr 3.38.1-1
gd 2.3.1-1
gdb 10.1-4
gdb-common 10.1-4
gdbm 1.19-1
gdk-pixbuf-xlib 2.40.2-1
gdk-pixbuf2 2.42.2-1
gegl 0.4.26-1
geoclue 2.5.7-2
geocode-glib 3.26.2-1
geoip 1.6.12-2
geoip-database 20210126-1
gettext 0.21-1
ghc-libs 8.10.3-1
ghostscript 9.53.3-3
giblib 1.2.4-8
giflib 5.2.1-2
gimp 2.10.22-1
girara 0.3.5-1
git 2.30.0-1
github-cli 1.5.0-1
gitlab-runner 13.8.0-1
glew 2.2.0-2
glib-networking 2.66.0-1
glib2 2.66.6-1
glib2-docs 2.66.6-1
glibc 2.33-3
glibd 2.2.0-5
glibmm 2.66.0-1
glslang 11.1.0-1
glu 9.0.1-2
gmp 6.2.1-1
gnome-backgrounds 3.38.0-1
gnome-desktop 1:3.38.3-1
gnome-themes-extra 3.28-2
gnome-video-effects 0.5.0+4+g9554041-2
gnu-free-fonts 20120503-8
gnupg 2.2.27-1
gnutls 3.7.0-1
go 2:1.15.8-1
gobject-introspection-runtime 1.66.1-3
goocanvas 2.0.4-7
goodix-p2max-dkms 20190917-1
google-chrome 88.0.4324.150-1
gpgme 1.15.1-1
gpm 1.20.7.r38.ge82d1a6-3
gptfdisk 1.0.6-1
graphene 1.10.2-1
graphite 1:1.3.14-1
graphviz 2.46.0-1
grep 3.6-1
groff 1.22.4-4
grub 2:2.04-8
gsasl 1.10.0-1
gsettings-desktop-schemas 3.38.0-1
gsfonts 20200910-1
gsm 1.0.19-1
gssdp 1.2.3-1
gst-plugin-gtk 1.18.3-1
gst-plugins-bad 1.18.3-2
gst-plugins-bad-libs 1.18.3-2
gst-plugins-base 1.18.3-1
gst-plugins-base-libs 1.18.3-1
gst-plugins-good 1.18.3-1
gstreamer 1.18.3-1
gtk-update-icon-cache 1:4.0.3-1
gtk-vnc 1.0.0-2
gtk2 2.24.33-1
gtk3 1:3.24.24-2
gtkglext 1.2.0-12
gtkmm3 3.24.3-1
gtksourceview3 3.24.11+28+g73e57b57-1
gts 0.7.6.121130-2
gucharmap 13.0.0-1
guile 2.2.6-2
guile2.0 2.0.14-4
guiscrcpy 4.9.0-1
gumbo-parser 0.10.1-2
gunicorn 20.0.4-3
gupnp 1.2.4-1
gupnp-igd 1.2.0-1
gvfs 1.46.2-1
gvfs-smb 1.46.2-1
gvim 8.2.2380-1
gzip 1.10-3
harfbuzz 2.7.4-1
harfbuzz-icu 2.7.4-1
haskell-aeson 1.5.5.1-18
haskell-assoc 1.0.2-54
haskell-attoparsec 0.13.2.4-63
haskell-base-compat 0.11.2-3
haskell-base-compat-batteries 0.11.2-63
haskell-base-orphans 0.8.4-52
haskell-bifunctors 5.5.10-16
haskell-comonad 5.0.8-31
haskell-data-fix 0.3.1-2
haskell-diff 0.4.0-8
haskell-distributive 0.6.2.1-32
haskell-dlist 1.0-50
haskell-erf 2.0.0.0-20
haskell-hashable 1.3.0.0-87
haskell-indexed-traversable 0.1.1-2
haskell-integer-logarithms 1.0.3.1-2
haskell-primitive 0.7.1.0-82
haskell-quickcheck 2.14.2-90
haskell-random 1.2.0-139
haskell-regex-base 0.94.0.0-7
haskell-regex-tdfa 1.3.1.0-7
haskell-scientific 0.3.6.2-80
haskell-splitmix 0.1.0.3-58
haskell-strict 0.4.0.1-28
haskell-tagged 0.8.6.1-1
haskell-th-abstraction 0.4.2.0-1
haskell-these 1.1.1.1-55
haskell-time-compat 1.9.5-28
haskell-transformers-compat 0.6.6-2
haskell-unordered-containers 0.2.13.0-39
haskell-uuid-types 1.0.3-85
haskell-vector 0.12.2.0-12
hicolor-icon-theme 0.17-2
hidapi 0.10.1-1
htop 3.0.5-1
http-parser 2.9.4-1
hugo 0.80.0-1
hunspell 1.7.0-3
hwids 20200813.1-1
hwloc 2.4.0-1
hyphen 2.8.8-3
iana-etc 20201229-1
icu 68.2-1
ijs 0.35-3
imagemagick 7.0.10.62-1
imlib2 1.7.1-1
inetutils 1.9.4-8
intel-ucode 20201118-1
inter-font 3.15-2
inxi 3.3.00.1-1
iproute2 5.10.0-2
iptables 1:1.8.7-1
iputils 20200821-1
ipython 7.19.0-5
iso-codes 4.5.0-1
iw 5.9-1
jack 0.125.0-9
jansson 2.13.1-1
jasper 2.0.24-1
java-environment-common 3-3
java-runtime-common 3-3
jbig2dec 0.19-1
jdk-openjdk 15.0.2.u7-1
jq 1.6-4
jre-openjdk 15.0.2.u7-1
jre-openjdk-headless 15.0.2.u7-1
js78 78.7.1-1
json-c 0.15-1
json-glib 1.6.0-1
jsoncpp 1.9.4-1
jxrlib 0.2.1-3
kakoune 2020.09.01-1
karchive 5.78.0-1
kauth 5.78.0-1
kbd 2.3.0-2
kbdd-git 0.7.1.r11.g7f3d9d2-1
kbookmarks 5.78.0-1
kcmutils 5.78.0-1
kcodecs 5.78.0-1
kcompletion 5.78.0-2
kconfig 5.78.0-1
kconfigwidgets 5.78.0-1
kcontacts 1:5.78.0-1
kcoreaddons 5.78.0-1
kcrash 5.78.0-1
kdbusaddons 5.78.0-1
kdeclarative 5.78.0-1
kdeconnect 20.12.2-1
kded 5.78.0-1
keychain 2.8.5-2
keyutils 1.6.3-1
kglobalaccel 5.78.0-1
kguiaddons 5.78.0-1
ki18n 5.78.0-1
kiconthemes 5.78.0-1
kio 5.78.0-3
kirigami2 5.78.0-1
kitemviews 5.78.0-1
kitty 0.19.3-1
kitty-terminfo 0.19.3-1
kjobwidgets 5.78.0-1
kmod 28-1
knotifications 5.78.0-1
kpackage 5.78.0-1
kpeople 5.78.0-1
kpeoplevcard 0.1-1
krb5 1.18.3-1
kservice 5.78.0-1
ktextwidgets 5.78.0-1
kvantum-qt5 0.18.0-1
kvantum-theme-materia 20210129-1
kwallet 5.78.0-1
kwayland 5.78.0-1
kwidgetsaddons 5.78.0-1
kwindowsystem 5.78.0-1
kxmlgui 5.78.0-1
l-smash 2.14.5-2
lame 3.100-3
lapack 3.9.0-3
lcms2 2.11-2
ldb 1:2.2.0-3
ldns 1.7.1-2
lensfun 0.3.95-4
less 563-1
lib32-glibc 2.33-3
libabw 0.1.3-2
libaio 0.3.112-2
libao 1.2.2-5
libappindicator-gtk3 12.10.0.r296-1
libarchive 3.5.1-1
libass 0.15.0-2
libassuan 2.5.4-1
libasyncns 0.8+3+g68cd5af-3
libatasmart 0.19-5
libatomic_ops 7.6.10-2
libavc1394 0.5.4-4
libavtp 0.1.0-2
libblockdev 2.25-1
libbluray 1.2.1-1
libbs2b 3.1.0-7
libbsd 0.10.0-2
libbytesize 2.4-4
libcaca 0.99.beta19-3
libcanberra 0.30+2+gc0620e4-3
libcanberra-pulse 0.30+2+gc0620e4-3
libcap 2.47-1
libcap-ng 0.8.2-1
libcddb 1.3.2-6
libcdio 2.1.0-2
libcdio-paranoia 10.2+2.0.1-2
libcdr 0.1.6-3
libcloudproviders 0.3.1-2
libcmis 0.5.2-6
libconfig 1.7.2-3
libcroco 0.6.13-2
libcups 1:2.3.3op2-1
libdaemon 0.14-5
libdatrie 0.2.12-2
libdbusmenu-glib 16.04.0-4
libdbusmenu-gtk3 16.04.0-4
libdbusmenu-qt5 0.9.3+16.04.20160218-5
libdc1394 2.2.6-2
libdca 0.0.7-1
libde265 1.0.8-1
libdrm 2.4.104-1
libdv 1.0.0-9
libdvbpsi 1:1.3.3-2
libdvdnav 6.1.0-2
libdvdread 6.1.1-1
libe-book 0.1.3-8
libebml 1.4.1-1
libebur128 1.2.5-1
libedit 20191231_3.1-3
libelf 0.182-1
libepoxy 1.5.5-1
libepubgen 0.1.1-2
libetonyek 0.1.9-2
libev 4.33-1
libevdev 1.11.0-1
libevent 2.1.12-1
libexif 0.6.22-1
libexttextcat 3.4.5-2
libfakekey 0.3-2
libfdk-aac 2.0.1-2
libffi 3.3-4
libfm 1.3.1-2
libfm-extra 1.3.1-2
libfm-gtk2 1.3.1-2
libfm-qt 0.16.0-2
libfontenc 1.1.4-3
libfprint 1.90.7-1
libfprint-1 1.0-1
libfreehand 0.1.2-3
libftdi 1.5-1
libgcrypt 1.9.1-1
libgda 5.2.10-1
libgda-postgres 5.2.10-1
libgee 0.20.3-2
libgexiv2 0.12.1-4
libglade 2.6.4-7
libglvnd 1.3.2-1
libgme 0.6.3-1
libgpg-error 1.41-1
libgphoto2 2.5.26-1
libgraph 1.0.2-2
libgsf 1.14.47-1
libgtop 2.40.0+2+g31db82ef-2
libgudev 234-1
libgusb 0.3.5-1
libheif 1.11.0-1
libibus 1.5.23+3+gaa558de8-3
libical 3.0.9-1
libice 1.0.10-3
libid3tag 0.15.1b-11
libidn 1.36-1
libidn2 2.3.0-1
libiec61883 1.2.0-6
libimagequant 2.13.1-1
libimobiledevice 1.3.0-3
libindicator-gtk3 12.10.1-9
libinih 52-2
libinput 1.16.4-1
libinstpatch 1.1.6-1
libixion 0.16.1-5
libjpeg-turbo 2.0.6-1
libkate 0.4.1-7
libksba 1.4.0-2
liblangtag 0.6.3-2
libldac 2.0.2.3-1
libldap 2.4.57-1
liblphobos 2:1.24.0-3
liblqr 0.4.2-3
liblrdf 0.6.1-4
libluv 1.36.0-1
libmad 0.15.1b-9
libmatroska 1.6.2-1
libmfx 20.5.1-1
libmicrodns 0.2.0-1
libmicrohttpd 0.9.72-1
libmikmod 3.3.11.1-4
libmm-glib 1.14.10-1
libmms 0.6.4-3
libmng 2.0.3-3
libmnl 1.0.4-3
libmodplug 0.8.9.0-3
libmpc 1.2.1-1
libmpcdec 1:0.1+r475-3
libmpdclient 2.19-3
libmpeg2 0.5.1-7
libmspub 0.1.4-9
libmtp 1.1.18-1
libmwaw 0.3.17-1
libmypaint 1.5.1-2
libndp 1.7-2
libnet 1:1.1.6-1
libnetfilter_conntrack 1.0.8-1
libnewt 0.52.21-5
libnfnetlink 1.0.1-4
libnfs 4.0.0-4
libnftnl 1.1.9-1
libnghttp2 1.41.0-1
libnice 0.1.18-1
libnl 3.5.0-2
libnm 1.28.1dev+16+gdaad4e2fee-1
libnma 1.8.30-1
libnotify 0.7.9-1
libnsl 1.3.0-1
libnsutils 0.1.0-2
libnumbertext 1.0.7-1
libodfgen 0.1.8-1
libofa 0.9.3-9
libogg 1.3.4-2
libomxil-bellagio 0.9.3-3
libopenaptx 0.2.0-1
libopenraw 0.3.0-1
liborcus 0.16.1-5
libotf 0.9.16-3
libp11-kit 0.23.22-1
libpagemaker 0.0.4-2
libpaper 1.1.28-1
libpcap 1.10.0-1
libpciaccess 0.16-2
libpgm 5.3.128-1
libpipeline 1.5.3-1
libpipewire02 0.2.7-1
libplacebo 3.104.0-1
libplist 2.2.0-3
libpng 1.6.37-3
libpng12 1.2.59-2
libproxy 0.4.17-1
libpsl 0.21.1-1
libpulse 14.2-2
libqxp 0.0.2-5
libraqm 0.7.1-1
libraw 0.20.2-1
libraw1394 2.1.2-3
libreoffice-fresh 7.1.0-1
libreoffice-fresh-ne 7.1.0-1
libressl 3.2.3-1
librevenge 0.0.4-3
librsvg 2:2.50.3-1
libsamplerate 0.1.9-3
libsasl 2.1.27-3
libseccomp 2.5.1-2
libsecret 0.20.4-1
libshout 1:2.4.5-1
libsidplayfp 2.0.2-1
libsigc++ 2.10.6-1
libsigsegv 2.13-1
libsm 1.2.3-2
libsndfile 1.0.28-3
libsodium 1.0.18-2
libsoup 2.72.0+5+g0b094bff-3
libsoxr 0.1.3-2
libspiro 1:20200505-2
libsrtp 1:2.3.0-1
libssh 0.9.5-1
libssh2 1.9.0-2
libstaroffice 0.0.7-1
libstdc++5 3.3.6-7
libstemmer 0+713-2
libsynctex 2020.54586-10
libtar 1.2.20-5
libtasn1 4.16.0-1
libteam 1.31-2
libtermkey 0.22-2
libthai 0.1.28-2
libtheora 1.1.1-5
libtiff 4.2.0-1
libtirpc 1.3.1-1
libtommath 1.2.0-3
libtool 2.4.6+42+gb88cebd5-14
libuninameslist 20200413-2
libunistring 0.9.10-3
libunrar 1:6.0.3-1
libunwind 1.4.0-1
libupnp 1.14.0-1
liburing 0.7-2
libusb 1.0.24-2
libusb-compat 0.1.7-1
libusbmuxd 2.0.2-1
libutempter 1.2.1-1
libutf8proc 2.6.1-1
libuv 1.40.0-1
libva 2.10.0-1
libvdpau 1.4-1
libvirt 1:7.0.0-2
libvisio 0.1.7-4
libvisual 0.4.0-8
libvncserver 0.9.13-1
libvorbis 1.3.7-2
libvpx 1.9.0-1
libvterm 0.1.3.git1.65dbda-1
libwacom 1.8-1
libwebp 1.2.0-1
libwmf 0.2.12-2
libwnck3 3.36.0-1
libwpd 0.10.3-2
libwpe 1.8.0-1
libwpg 0.3.3-2
libwps 0.4.12-1
libx11 1.7.0-3
libxau 1.0.9-3
libxaw 1.0.13-3
libxcb 1.14-1
libxcomposite 0.4.5-3
libxcrypt 4.4.17-1
libxcursor 1.2.0-2
libxdamage 1.1.5-3
libxdg-basedir 1.2.0-5
libxdmcp 1.1.3-3
libxext 1.3.4-3
libxfce4ui 4.16.0-1
libxfce4util 4.16.0-1
libxfixes 5.0.3-4
libxfont2 2.0.4-3
libxft 2.3.3-2
libxi 1.7.10-3
libxinerama 1.1.4-3
libxkbcommon 1.0.3-1
libxkbcommon-x11 1.0.3-1
libxkbfile 1.1.0-2
libxklavier 5.4-3
libxml2 2.9.10-8
libxmu 1.1.3-2
libxpm 3.5.13-2
libxrandr 1.5.2-3
libxrender 0.9.10-4
libxres 1.2.0-2
libxshmfence 1.3-2
libxslt 1.1.34-5
libxss 1.2.3-3
libxt 1.2.1-1
libxtst 1.2.3-4
libxv 1.0.11-4
libxvmc 1.0.12-3
libxxf86vm 1.1.4-4
libyaml 0.2.5-1
libzmf 0.0.2-9
licenses 20200427-1
light 1.2.2-1
light-locker 1.9.0-4
lightdm 1:1.30.0-4
lightdm-gtk-greeter 1:2.0.8-1
lightdm-webkit2-greeter 2.2.5-4
lilv 0.24.12-1
linux 5.10.14.arch1-1
linux-api-headers 5.10.13-1
linux-docs 5.10.14.arch1-1
linux-firewire-utils 0.4-2
linux-firmware 20201218.646f159-1
linux-headers 5.10.14.arch1-1
linux-lts 5.4.96-1
linux-lts-headers 5.4.96-1
lirc 1:0.10.1-8
llvm-libs 11.0.1-2
lm_sensors 3.6.0-2
lmdb 0.9.28-1
lohit-fonts 2.95.5.1-2
lolcat 100.0.0-2
lpsolve 5.5.2.5-4
lsb-release 1.4-18
lshw B.02.19.2-1
lsp-plugins 1.1.29-1
lua 5.4.2-1
lua52 5.2.4-5
lua53 5.3.6-1
lua53-lgi 0.9.2-3
luajit 2.0.5-3
luit 20201003-1
lvm2 2.02.187-3
lxappearance 0.6.3-4
lxmenu-data 0.1.5-3
lyrebird 1.1.0-2
lz4 1:1.9.3-1
lzo 2.10-3
m17n-db 1.8.0-3
m17n-lib 1.8.0-8
m4 1.4.18-3
mailcap 2.1.49-1
mailutils 3.11.1-1
maim 5.6.3-3
make 4.3-3
man-db 2.9.3-1
man-pages 5.10-1
materia-kde 20210129-1
mathjax 3.1.2-1
mbedtls 2.25.0-1
md4c 0.4.7-1
mdadm 4.1-2
media-player-info 24-2
mega-sdk 3.5.2-1
megabasterd-bin 7.40-1
megacli 8.07.14-2
megatools-bin 1.11.0.git.20200830-1
menu-cache 1.1.0-2
mesa 20.3.4-1
metis 5.1.0.p10-1
micro 2.0.8-2
miniupnpc 2.1.20191224-3
minizip 1:1.2.11-4
mjpegtools 2.2.0beta-1
mkinitcpio 29-1
mkinitcpio-busybox 1.32.1-2
mlocate 0.26.git.20170220-5
mobile-broadband-provider-info 20201225-1
mpc 0.33-3
mpd 0.22.4-2
mpdecimal 2.5.1-1
mpfr 4.1.0-1
mpg123 1.26.3-2
mplayer 38157-3
mps-youtube 0.2.8-4
mpv 1:0.33.0-4
msgpack-c 3.3.0-2
mtdev 1.1.6-1
mujs 1.0.9-1
mypaint-brushes1 1.3.1-1
nano 5.5-1
ncmpc 0.44-1
ncmpcpp 0.9.2-1
ncurses 6.2-1
ncurses5-compat-libs 6.2-1
ndctl 71.1-1
neofetch 7.1.0-2
neon 0.31.2-1
neovim 0.4.4-1
neovim-qt 0.2.16.1-1
nerd-fonts-fantasque-sans-mono 2.1.0-1
nerd-fonts-hermit 2.1.0-2
nerd-fonts-mononoki 2.1.0-2
net-tools 2.10-1
netpbm 10.73.33-1
netstat-nat 1.4.10-5
nettle 3.7-1
network-manager-applet 1.20.0-1
networkmanager 1.28.1dev+16+gdaad4e2fee-1
networkmanager-openconnect 1.2.7dev+49+gc512d5a-1
nginx 1.18.0-2
nm-connection-editor 1.20.0-1
nmap 7.91-1
nodejs 15.8.0-1
nomacs 1:3.17.2206-3
noto-fonts 20201226-1
noto-fonts-emoji 20200916-1
npth 1.6-2
nspr 4.29-1
nss 3.61-1
ntfs-3g 2017.3.23-5
numactl 2.0.14-1
nvidia-utils 460.39-1
obs-studio 26.1.2-1
onboard 1.4.1-6
oniguruma 6.9.6-1
openal 1.21.0-1
openboard 1.5.4-3
openconnect 1:8.10-1
opencore-amr 0.1.5-5
opencv 4.5.1-1
openexr 2.5.4-1
openjpeg2 2.4.0-1
openmpi 4.0.5-2
openresolv 3.12.0-1
openssh 8.4p1-2
openssl 1.1.1.i-2
optipng 0.7.7-2
opus 1.3.1-2
orc 0.4.32-1
p11-kit 0.23.22-1
p7zip 17.03-2
pacman 5.2.2-2
pacman-mirrorlist 20210206-1
pam 1.5.1-1
pambase 20200721.1-2
pango 1:1.48.1-1
pangomm 2.46.0-1
papirus-icon-theme 20210201-1
papirus-libreoffice-theme 1:20170228-4
parted 3.4-1
pasystray 0.7.1-2
patch 2.7.6-8
pavucontrol 1:4.0-2
pciutils 3.7.0-1
pcmanfm 1.3.1-2
pcmanfm-qt 0.16.0-1
pcre 8.44-1
pcre2 10.36-1
pcsclite 1.9.0-1
pepper-flash 32.0.0.465-1
perl 5.32.0-3
perl-clone 0.45-2
perl-encode-locale 1.05-7
perl-error 0.17029-2
perl-file-listing 6.14-1
perl-file-which 1.23-4
perl-html-parser 3.75-1
perl-html-tagset 3.20-10
perl-http-cookies 6.10-1
perl-http-daemon 6.06-2
perl-http-date 6.05-3
perl-http-message 6.27-1
perl-http-negotiate 6.01-8
perl-io-html 1.004-1
perl-libwww 6.52-1
perl-lwp-mediatypes 6.02-8
perl-mailtools 2.21-4
perl-net-http 6.20-1
perl-timedate 2.33-2
perl-try-tiny 0.30-5
perl-uri 5.07-1
perl-www-robotrules 6.02-8
perl-xml-parser 2.46-2
picom 8.2-1
pinentry 1.1.0-5
pipewire 1:0.3.21-1
pixman 0.40.0-1
pkgconf 1.7.3-1
pkgfile 21-2
playerctl 2.3.1-1
pm2 4.5.4-1
podofo 0.9.7-1
polkit 0.118-1
polkit-qt5 0.113.0-2
polybar 3.5.4-1
ponymix 5-3
poppler 21.02.0-1
poppler-data 0.4.10-1
poppler-glib 21.02.0-1
poppler-qt5 21.02.0-1
popt 1.18-1
portaudio 1:19.6.0-7
postgresql 13.1-3
postgresql-docs 13.1-3
postgresql-ip4r 2.4.1-2
postgresql-libs 13.1-3
potrace 1.16-2
powerline 2.8.1-2
powerline-common 2.8.1-2
powerline-fonts 2.8.1-2
procps-ng 3.3.16-3
protobuf 3.12.4-3
psmisc 23.3-4
pulseaudio 14.2-2
pulseaudio-alsa 1:1.2.2-2
pulseaudio-bluetooth 14.2-2
pulseaudio-equalizer 14.2-2
pulseaudio-jack 14.2-2
pulseaudio-lirc 14.2-2
pulseaudio-qt 1.2-2
pulseeffects 5.0.0-1
pulsemixer 1.5.1-2
pycryptopp 0.7.1-1
python 3.9.1-2
python-appdirs 1.4.4-3
python-apsw 3.34.0-1
python-asn1crypto 1.4.0-3
python-babel 2.9.0-1
python-backcall 0.2.0-3
python-beautifulsoup4 4.9.3-3
python-cachecontrol 0.12.6-3
python-cairo 1.20.0-3
python-cairocffi 1.2.0-3
python-cairosvg 2.5.1-1
python-cffi 1.14.4-1
python-chardet 3.0.4-7
python-click 7.1.2-3
python-colorama 0.4.4-3
python-configobj 5.0.6.r110.g3e2f4cc-1
python-contextlib2 0.6.0.post1-3
python-cryptography 3.3.1-1
python-css-parser 1.0.6-3
python-cssselect 1.1.0-6
python-cssselect2 0.4.1-1
python-dateutil 2.8.1-5
python-dbus 1.2.16-3
python-dbus-common 1.2.16-3
python-decorator 4.4.2-3
python-defusedxml 0.6.0-6
python-distlib 0.3.1-2
python-distro 1.5.0-3
python-dnspython 1:1.16.0-3
python-docutils 0.16-4
python-evdev 1.4.0-1
python-feedparser 5.2.1-9
python-gobject 3.38.0-3
python-html2text 2020.1.16-3
python-html5-parser 0.4.9-5
python-html5lib 1.1-5
python-idna 2.10-3
python-ifaddr 0.1.7-3
python-imagesize 1.2.0-4
python-jedi 0.17.2-3
python-jinja 2.11.3-1
python-lxml 4.6.2-1
python-markdown 3.3.3-3
python-markupsafe 1.1.1-6
python-mechanize 1:0.4.5-4
python-msgpack 1.0.2-2
python-netifaces 0.10.9-6
python-ordered-set 4.0.2-3
python-packaging 20.9-1
python-pafy 0.5.5-3
python-parso 1:0.7.1-3
python-patiencediff 0.2.1-3
python-pep517 0.9.1-3
python-pexpect 4.8.0-3
python-pickleshare 0.7.5-5
python-pillow 8.1.0-1
python-pip 20.3.1-1
python-ply 3.11-7
python-powerline 2.8.1-2
python-progress 1.5-5
python-prompt_toolkit 3.0.14-1
python-psutil 5.8.0-1
python-ptyprocess 0.7.0-1
python-py7zr 0.11.3-1
python-pyalsa 1.1.6-6
python-pychm 0.8.6-4
python-pycparser 2.20-3
python-pycryptodome 3.9.9-3
python-pygments 2.7.4-1
python-pynput 1.7.2-1
python-pyopenssl 20.0.1-1
python-pyparsing 2.4.7-3
python-pyqt5 5.15.2-3
python-pyqt5-sip 12.8.1-3
python-pyqt5-webengine 5.15.2-1
python-pyte 0.8.0-6
python-pytz 2021.1-1
python-pyxdg 0.26-8
python-qtpy 1.9.0-5
python-regex 2020.11.13-2
python-requests 2.25.1-1
python-resolvelib 0.5.4-1
python-retrying 1.3.3-9
python-selenium 3.141.0-3
python-setuptools 1:53.0.0-1
python-sgmllib 5.2.1-9
python-shiboken2 5.15.2-4
python-six 1.15.0-3
python-snowballstemmer 2.1.0-1
python-soupsieve 2.1.0-1
python-sphinx 3.4.3-1
python-sphinx-alabaster-theme 0.7.12-6
python-sphinxcontrib-applehelp 1.0.2-3
python-sphinxcontrib-devhelp 1.0.2-3
python-sphinxcontrib-htmlhelp 1.0.3-3
python-sphinxcontrib-jsmath 1.0.1-6
python-sphinxcontrib-qthelp 1.0.3-3
python-sphinxcontrib-serializinghtml 1.1.4-3
python-texttable 1.6.3-3
python-tinycss2 1.1.0-1
python-toml 0.10.2-3
python-traitlets 5.0.5-1
python-unrardll 0.1.4-5
python-urllib3 1.26.3-1
python-wcwidth 0.2.5-3
python-webencodings 0.5.1-6
python-xcffib 0.11.1-1
python-xlib 0.29-1
python-zeroconf 0.28.8-1
python2 2.7.18-2
python2-appdirs 1.4.4-3
python2-ordered-set 3.1.1-3
python2-packaging 20.9-1
python2-pyparsing 2.4.7-3
python2-setuptools 2:44.1.1-1
python2-six 1.15.0-3
python2-wxpython3 3.0.2.0-3
python38 3.8.7-1
qca 2.3.2-1
qt5-base 5.15.2-3
qt5-declarative 5.15.2-1
qt5-graphicaleffects 5.15.2-1
qt5-location 5.15.2-2
qt5-multimedia 5.15.2-1
qt5-quickcontrols 5.15.2-1
qt5-quickcontrols2 5.15.2-1
qt5-script 5.15.2-1
qt5-sensors 5.15.2-1
qt5-speech 5.15.2-1
qt5-svg 5.15.2-1
qt5-tools 5.15.2-2
qt5-wayland 5.15.2-1
qt5-webchannel 5.15.2-1
qt5-webengine 5.15.2-5
qt5-webkit 5.212.0alpha4-9
qt5-x11extras 5.15.2-1
qt5-xmlpatterns 5.15.2-1
qterminal 0.16.1-1
qtermwidget 0.16.1-3
quazip 1.1-1
ranger 1.9.3-3
raptor 2.0.15-15
rasqal 1:0.9.33-4
rav1e 0.4.0-1
raw-thumbnailer 0.2.1-7
rclone 1.54.0-1
re2 1:20210202-1
readline 8.1.0-2
recode 3.7.8-1
redland 1:1.0.17-8
redshift 1.12-4
rest 0.8.1-3
rhash 1.4.1-1
ripgrep 12.1.1-1
rmlint 2.10.1-2
rofi 1.6.1-1
rsync 3.2.3-3
rtkit 0.13-1
rtmpdump 1:2.4.r96.fa8646d-6
rubberband 1.9-1
ruby 2.7.2-1
ruby-diff-lcs 1.4.4-1
ruby-irb 1.3.0-1
ruby-manpages 0.6.1-3
ruby-optimist 3.0.1-1
ruby-paint 2.2.1-1
ruby-rainbow 3.0.0-5
ruby-rdoc 6.3.0-1
ruby-reline 0.2.2-1
ruby-rspec 3.8.0-3
ruby-rspec-core 3.8.0-3
ruby-rspec-expectations 3.8.1-3
ruby-rspec-mocks 3.8.0-3
ruby-rspec-support 3.8.0-3
ruby-term-ansicolor 1.7.1-1
ruby-tins 1.26.0-1
rubygems 3.2.7-1
run-parts 4.8.6.1-2
runc 1.0.0rc93-1
sbc 1.5-1
scons 3.1.2-4
scrcpy 1.17-1
screenfetch 3.9.1-1
screenkey 1.4-1
scrot 1.5-1
sdl 1.2.15-14
sdl2 2.0.14-1
sdl_gfx 2.0.26-5
sdl_image 1.2.12-7
sdl_net 1.2.8-5
sdl_sound 1.0.3-8
sdl_ttf 2.0.11-6
sed 4.8-1
semver 7.3.4-1
serd 0.30.10-1
serf 1.3.9-5
sfml 2.5.1-2
shaderc 2020.3-1
shadow 4.8.1-4
shared-mime-info 2.0+57+gc1d1c70-1
shellcheck 0.7.1-274
sl 5.02-6
slang 2.3.2-2
slop 7.5-4
smbclient 4.13.4-1
smpeg 0.4.5-5
snappy 1.1.8-2
sndcpy-bin 1.0-1
socat 1.7.3.4-2
solid 5.78.0-1
sonnet 5.78.0-1
sord 0.16.8-1
sound-theme-freedesktop 0.8-4
soundtouch 2.2-1
source-highlight 3.1.9-4
sox 14.4.2-7
spandsp 0.0.6-3
speex 1.2.0-3
speexdsp 1.2.0-2
spirv-tools 2020.4-1
sqlite 3.34.1-1
sratom 0.6.8-1
srt 1.4.2-1
stalonetray 0.8.3-4
startup-notification 0.12-7
stoken 0.92-4
subversion 1.14.0-4
sudo 1.9.5.p2-1
suitesparse 5.8.1-1
supervisor 4.2.1-2
svt-hevc 1.5.0-1
sxhkd 0.6.2-1
sysfsutils 2.1.0-11
systemd 247.3-1
systemd-libs 247.3-1
systemd-sysvcompat 247.3-1
systemd-ui 3-5
t1lib 5.1.2-8
taglib 1.11.1-4
talloc 2.3.2-1
tar 1.33-1
tbb 2020.3-1
tcl 8.6.11-1
tdb 1.4.3-4
telegram-desktop-bin-dev 2.5.6-1
terminus-font 4.49.1-1
tevent 1:0.10.2-3
texinfo 6.7-3
texlive-bibtexextra 2020.56991-1
texlive-bin 2020.54586-10
texlive-core 2020.57066-1
texlive-fontsextra 2020.57042-1
texlive-formatsextra 2020.56699-1
texlive-games 2020.56833-1
texlive-humanities 2020.57034-1
texlive-latexextra 2020.57067-1
texlive-music 2020.56473-1
texlive-pictures 2020.57065-1
texlive-pstricks 2020.56758-1
texlive-publishers 2020.57058-1
texlive-science 2020.57068-1
thefuck 3.30-2
thin-provisioning-tools 0.9.0-1
tigervnc 1.11.0-6
tk 8.6.11.1-1
tmux 3.1_c-1
toilet 0.3.r155.3eb9d58-1
traceroute 2.1.0-5
tracker3 3.0.3-1
translate-shell 0.9.6.11-2
transmission-cli 3.00-2
transmission-gtk 3.00-2
tree 1.8.0-2
tslib 1.22-1
ttf-baekmuk 2.2-13
ttf-bitstream-vera 1.10-14
ttf-dejavu 2.37+18+g9b5d1b2f-2
ttf-fantasque-sans-mono 1.8.0-2
ttf-fira-code 5.2-1
ttf-fira-mono 2:3.206-4
ttf-font-awesome 5.15.2-1
ttf-inconsolata 1:3.000-2
ttf-indic-otf 0.2-11
ttf-joypixels 6.0.0-1
ttf-liberation 2.1.2-1
ttf-linux-libertine 5.3.0-6
ttf-mononoki-git r78.07f7e9b-1
ttf-ms-fonts 2.0-12
ttf-roboto 2.138-4
ttf-symbola 13.00-8
ttf-twemoji 13.0.1-1
ttf-twemoji-color 13.0.1-1
ttf-ubuntu-font-family 0.83-6
tumbler 4.16.0-1
twolame 0.4.0-2
tzdata 2021a-1
ucc 2.9-1
uchardet 0.0.7-1
udisks2 2.9.2-1
ufw 0.36-5
unibilium 2.1.0-2
unrar 1:6.0.3-1
unzip 6.0-14
upower 0.99.11-3
usbaudio-git r4.6f46c43-1
usbmuxd 1.1.1-1
usbutils 013-1
util-linux 2.36.1-4
util-linux-libs 2.36.1-4
v4l-utils 1.20.0-1
vamp-plugin-sdk 2.10.0-1
vid.stab 1.1-3
vim-runtime 8.2.2380-1
virtualbox 6.1.18-1
virtualbox-guest-dkms 6.1.18-1
virtualbox-guest-utils 6.1.18-1
virtualbox-host-dkms 6.1.18-1
vlc 3.0.12-1
vmaf 1.5.3-1
volume_key 0.3.12-5
vpnc 1:0.5.3.r468.r81-2
vulkan-icd-loader 1.2.166-1
wavpack 5.4.0-1
wayland 1.19.0-1
wayland-protocols 1.20-1
wd719x-firmware 1-7
webkit2gtk 2.30.4-3
webrtc-audio-processing 0.3.1-2
wget 1.21.1-1
which 2.21-5
wildmidi 0.4.3-3
wkhtmltopdf 0.12.6-1
woff2 1.0.2-3
wpa_supplicant 2:2.9-8
wpebackend-fdo 1.8.0-1
wxgtk-common 3.0.5.1-2
wxgtk3 3.0.5.1-2
x264 3:0.160.r3011.cde9a93-1
x265 3.4-1
xcb-imdkit 1.0.2-1
xcb-proto 1.14.1-3
xcb-util 0.4.0-3
xcb-util-cursor 0.1.3-3
xcb-util-errors 1.0-4
xcb-util-image 0.4.0-3
xcb-util-keysyms 0.4.0-3
xcb-util-renderutil 0.3.9-3
xcb-util-wm 0.4.1-3
xcb-util-xrm 1.3-2
xclip 0.13-3
xcmenu-git 20140816.23-1
xcursor-arch-cursor-complete 06.10.2018-1
xdg-dbus-proxy 0.1.2-2
xdg-utils 1.1.3+19+g9816ebb-1
xdot 1.1-3
xdotool 3.20160805.1-3
xf86-input-libinput 0.30.0-1
xf86-input-synaptics 1.9.1-2
xf86-video-amdgpu 19.1.0-2
xf86-video-ati 1:19.1.0-2
xf86-video-dummy 0.3.8-4
xf86-video-intel 1:2.99.917+916+g31486f40-1
xf86-video-nouveau 1.0.17-1
xf86-video-vesa 2.5.0-1
xf86-video-vmware 13.3.0-2
xfce4-dict 0.8.4-1
xfce4-panel 4.16.1-1
xfce4-power-manager 4.16.0-1
xfconf 4.16.0-1
xfsprogs 5.10.0-1
xkeyboard-config 2.31-1
xmlsec 1.2.31-1
xorg-bdftopcf 1.1-2
xorg-docs 1.7.1-3
xorg-font-util 1.3.2-2
xorg-fonts-100dpi 1.0.3-7
xorg-fonts-75dpi 1.0.3-7
xorg-fonts-alias-100dpi 1.0.4-1
xorg-fonts-alias-75dpi 1.0.4-1
xorg-fonts-encodings 1.0.5-2
xorg-fonts-type1 7.7-6
xorg-iceauth 1.0.8-2
xorg-mkfontscale 1.2.1-2
xorg-server 1.20.10-3
xorg-server-common 1.20.10-3
xorg-server-devel 1.20.10-3
xorg-server-xephyr 1.20.10-3
xorg-server-xnest 1.20.10-3
xorg-server-xvfb 1.20.10-3
xorg-sessreg 1.1.2-2
xorg-setxkbmap 1.3.2-2
xorg-smproxy 1.0.6-3
xorg-util-macros 1.19.3-1
xorg-x11perf 1.6.1-2
xorg-xauth 1.1-2
xorg-xbacklight 1.2.3-2
xorg-xcmsdb 1.0.5-3
xorg-xcursorgen 1.0.7-2
xorg-xdpyinfo 1.3.2-4
xorg-xdriinfo 1.0.6-2
xorg-xev 1.2.4-1
xorg-xfd 1.1.3-2
xorg-xfontsel 1.0.6-3
xorg-xgamma 1.0.6-3
xorg-xhost 1.0.8-2
xorg-xinit 1.4.1-3
xorg-xinput 1.6.3-2
xorg-xkbcomp 1.4.4-1
xorg-xkbevd 1.1.4-3
xorg-xkbutils 1.0.4-4
xorg-xkill 1.0.5-2
xorg-xlsatoms 1.1.3-2
xorg-xlsclients 1.1.4-2
xorg-xlsfonts 1.0.6-3
xorg-xmessage 1.0.5-2
xorg-xmodmap 1.0.10-2
xorg-xpr 1.0.5-2
xorg-xprop 1.2.5-1
xorg-xrandr 1.5.1-2
xorg-xrdb 1.2.0-2
xorg-xrefresh 1.0.6-2
xorg-xset 1.2.4-2
xorg-xsetroot 1.1.2-2
xorg-xvinfo 1.1.4-2
xorg-xwayland 1.20.0.r844.g1e72c3ce8-1
xorg-xwd 1.0.7-2
xorg-xwininfo 1.1.5-2
xorg-xwud 1.0.5-2
xorgproto 2020.1-1
xvidcore 1.3.7-2
xxhash 0.8.0-1
xz 5.2.5-1
yajl 2.1.0-4
yay-git 10.1.2.r1.g5f9ad88-1
yelp 3.38.2-1
yelp-xsl 3.38.2-1
ympd 1.3.0-4
youtube-dl 2021.02.04.1-2
z 1.11-2
zathura 0.4.7-1
zathura-djvu 0.2.9-1
zathura-pdf-mupdf 0.3.6-4
zbar 0.23.1-6
zeromq 4.3.3-2
zip 3.0-9
zita-alsa-pcmi 0.3.2-3
zita-convolver 4.0.3-2
zita-resampler 1.8.0-1
zlib 1:1.2.11-4
zoom 5.5.2-1
zsh 5.8-1
zsh-pure-prompt 1.16.0-1
zstd 1.4.8-1
zvbi 0.2.35-4
zxing-cpp 1.1.1-1
zziplib 0.13.72-1
